language,family,alternatives,code_alternatives,code,3_code,other_code,extra_1,extra_2,macro_details
chinese,"Sino-Tibetan languages,Sino-Tibetan","Chinese language,Chinese","{{lang,zh-Hani,中文}} Zhōngwén, {{lang,zh-Hans,汉语}}, {{lang,zh-Hant,漢語}}",zh,zho,chi,"zho + ISO 639 macrolanguage#zho,13",,macrolanguage
nynorsk,"Indo-European languages,Indo-European","Nynorsk,Norwegian Nynorsk","lang=nn,Norsk nynorsk",nn,nno,nno,nno,,Covered by macrolanguage no/nor
kinyarwanda,"Niger–Congo languages,Niger–Congo",Kinyarwanda,"lang=rw,Ikinyarwanda",rw,kin,kin,kin,,
ossetic,"Indo-European languages,Indo-European","Ossetic language,Ossetian, Ossetic","lang=os,ирон æвзаг",os,oss,oss,oss,,
ojibwa,"Algonquian languages,Algonquian","Ojibwe language,Ojibwe, Ojibwa","lang=oj,ᐊᓂᔑᓈᐯᒧᐎᓐ",oj,oji,oji,"oji + ISO 639 macrolanguage#oji,7",,macrolanguage
tshivenḓa,"Niger–Congo languages,Niger–Congo","Venda language,Venda","lang=ve,Tshivenḓa",ve,ven,ven,ven,,
avaric,"Northeast Caucasian languages,Northeast Caucasian","Avar language,Avaric","lang=av,авар мацӀ, магӀарул мацӀ",av,ava,ava,ava,,
aymara,"Aymaran languages,Aymaran","Aymara language,Aymara","lang=ay,aymar aru",ay,aym,aym,"aym + ISO 639 macrolanguage#aym,2",,macrolanguage
turkish,"Turkic languages,Turkic","Turkish language,Turkish","lang=tr,Türkçe",tr,tur,tur,tur,,
lingála,"Niger–Congo languages,Niger–Congo","Lingala language,Lingala","lang=ln,Lingála",ln,lin,lin,lin,,
башҡорт теле,"Turkic languages,Turkic","Bashkir language,Bashkir","lang=ba,башҡорт теле",ba,bak,bak,bak,,
slovenščina,"Indo-European languages,Indo-European","Slovene language,Slovene","lang=sl,slovenski jezik, slovenščina",sl,slv,slv,slv,,
langue française,"Indo-European languages,Indo-European","French language,French","lang=fr,français, langue française",fr,fra,fre,fra,fras,
davvisámegiella,"Uralic languages,Uralic",Northern Sami,"lang=se,Davvisámegiella",se,sme,sme,sme,,
kalaallit oqaasii,"Eskimo–Aleut languages,Eskimo–Aleut","Kalaallisut language,Kalaallisut, Greenlandic","lang=kl,kalaallisut, kalaallit oqaasii",kl,kal,kal,kal,,
khmer,"Austroasiatic languages,Austroasiatic","Khmer language,Khmer","lang=km,ខ្មែរ, ខេមរភាសា, ភាសាខ្មែរ",km,khm,khm,khm,,a.k.a. Cambodian
español,"Indo-European languages,Indo-European","Spanish language,Spanish, Castilian","lang=es,español, castellano",es,spa,spa,spa,,
pular,"Niger–Congo languages,Niger–Congo","Fula language,Fula, Fulah, Pulaar, Pular","lang=ff,Fulfulde, Pulaar, Pular",ff,ful,ful,"ful + ISO 639 macrolanguage#ful,9",,macrolanguage
gaelg,"Indo-European languages,Indo-European","Manx language,Manx","lang=gv,Gaelg, Gailck",gv,glv,glv,glv,,
northern sami,"Uralic languages,Uralic",Northern Sami,"lang=se,Davvisámegiella",se,sme,sme,sme,,
navajo,"Dené–Yeniseian languages,Dené–Yeniseian","Navajo language,Navajo, Navaho","lang=nv,Diné bizaad, Dinékʼehǰí",nv,nav,nav,nav,,
castilian,"Indo-European languages,Indo-European","Spanish language,Spanish, Castilian","lang=es,español, castellano",es,spa,spa,spa,,
kikuyu,"Niger–Congo languages,Niger–Congo","Gikuyu language,Kikuyu, Gikuyu","lang=ki,Gĩkũyũ",ki,kik,kik,kik,,
tswana,"Niger–Congo languages,Niger–Congo","Tswana language,Tswana","lang=tn,Setswana",tn,tsn,tsn,tsn,,
gaelic,"Indo-European languages,Indo-European","Scottish Gaelic language,Scottish Gaelic, Gaelic","lang=gd,Gàidhlig",gd,gla,gla,gla,,
chuang,"Tai–Kadai languages,Tai–Kadai","Zhuang languages,Zhuang, Chuang","lang=za,Saɯ cueŋƅ, Saw cuengh",za,zha,zha,"zha + ISO 639 macrolanguage#zha,16",,macrolanguage
croatian,"Indo-European languages,Indo-European","Croatian language,Croatian","lang=hr,hrvatski jezik",hr,hrv,hrv,hrv,,
संस्कृतम्,"Indo-European languages,Indo-European","Sanskrit,Sanskrit Saṁskṛta","lang=sa,संस्कृतम्",sa,san,san,san,,"ancient, still spoken"
deutsch,"Indo-European languages,Indo-European","German language,German","lang=de,Deutsch",de,deu,ger,deu,deus,
luba-katanga,"Niger–Congo languages,Niger–Congo","Tshiluba language,Luba-Katanga",Tshiluba,lu,lub,lub,lub,,
українська мова,"Indo-European languages,Indo-European","Ukrainian language,Ukrainian","lang=uk,українська мова",uk,ukr,ukr,ukr,,
japanese,Japonic,"Japanese language,Japanese","{{lang,ja-Hani,日本語}} {{lang,ja-Hira,にほんご}}",ja,jpn,jpn,jpn,,
estonian,"Uralic languages,Uralic","Estonian language,Estonian","lang=et,eesti, eesti keel",et,est,est,"est + ISO 639 macrolanguage#est,2",,macrolanguage
telugu,"Dravidian languages,Dravidian","Telugu language,Telugu","lang=te,తెలుగు",te,tel,tel,tel,,
marathi,"Indo-European languages,Indo-European","Marathi language,Marathi Marāṭhī","lang=mr,मराठी",mr,mar,mar,mar,,
ไทย,"Tai–Kadai languages,Tai–Kadai","Thai language,Thai","lang=th,ไทย",th,tha,tha,tha,,
lingua corsa,"Indo-European languages,Indo-European","Corsican language,Corsican","lang=co,corsu, lingua corsa",co,cos,cos,cos,,
gujarati,"rowspan=, Indo-European languages,Indo-European","Gujarati language,Gujarati","lang=gu,ગુજરાતી",gu,guj,guj,guj,,
fulah,"Niger–Congo languages,Niger–Congo","Fula language,Fula, Fulah, Pulaar, Pular","lang=ff,Fulfulde, Pulaar, Pular",ff,ful,ful,"ful + ISO 639 macrolanguage#ful,9",,macrolanguage
chechen,"Northeast Caucasian languages,Northeast Caucasian","Chechen language,Chechen","lang=ce,нохчийн мотт",ce,che,che,che,,
tibetan standard,"Sino-Tibetan languages,Sino-Tibetan","Standard Tibetan,Tibetan Standard, Tibetan, Central","lang=bo,བོད་ཡིག",bo,bod,tib,bod,,
faroese,"Indo-European languages,Indo-European","Faroese language,Faroese","lang=fo,føroyskt",fo,fao,fao,fao,,
diné bizaad,"Dené–Yeniseian languages,Dené–Yeniseian","Navajo language,Navajo, Navaho","lang=nv,Diné bizaad, Dinékʼehǰí",nv,nav,nav,nav,,
igbo,"Niger–Congo languages,Niger–Congo","Igbo language,Igbo","lang=ig,Asụsụ Igbo",ig,ibo,ibo,ibo,,
yoruba,"Niger–Congo languages,Niger–Congo","Yoruba language,Yoruba","lang=yo,Yorùbá",yo,yor,yor,yor,,
sanskrit saṁskṛta,"Indo-European languages,Indo-European","Sanskrit,Sanskrit Saṁskṛta","lang=sa,संस्कृतम्",sa,san,san,san,,"ancient, still spoken"
fula,"Niger–Congo languages,Niger–Congo","Fula language,Fula, Fulah, Pulaar, Pular","lang=ff,Fulfulde, Pulaar, Pular",ff,ful,ful,"ful + ISO 639 macrolanguage#ful,9",,macrolanguage
ganda,"Niger–Congo languages,Niger–Congo","Luganda,Ganda","lang=lg,Luganda",lg,lug,lug,lug,,
avañeẽ,"Tupian languages,Tupian","Guaraní language,Guaraní","lang=gn,Avañeẽ",gn,grn,grn,"grn + ISO 639 macrolanguage#grn,5",,macrolanguage
uyghur,"Turkic languages,Turkic","Uyghur language,Uyghur, Uighur","{{lang,ug-Latn,Uyƣurqə}}, {{rtl-lang,ug-Arab,<!--rtl-->ئۇيغۇرچە<!--rtl-->}}",ug,uig,uig,uig,,
vietnamese,"Austroasiatic languages,Austroasiatic","Vietnamese language,Vietnamese","lang=vi,Tiếng Việt",vi,vie,vie,vie,,
ᐊᓂᔑᓈᐯᒧᐎᓐ,"Algonquian languages,Algonquian","Ojibwe language,Ojibwe, Ojibwa","lang=oj,ᐊᓂᔑᓈᐯᒧᐎᓐ",oj,oji,oji,"oji + ISO 639 macrolanguage#oji,7",,macrolanguage
sango,"Creole languages,Creole","Sango language,Sango","lang=sg,yângâ tî sängö",sg,sag,sag,sag,,
west frisian,"Indo-European languages,Indo-European","West Frisian language,Western Frisian","lang=fy,Frysk",fy,fry,fry,fry,,
reo tahiti,"Austronesian languages,Austronesian","Tahitian language,Tahitian","lang=ty,Reo Tahiti",ty,tah,tah,tah,,One of the Reo Mā`ohi languages of French Polynesia
basa jawa,"Austronesian languages,Austronesian","Javanese language,Javanese","lang=jv,basa Jawa",jv,jav,jav,jav,,
हिंदी,"Indo-European languages,Indo-European",Hindi,"lang=hi,हिन्दी, हिंदी",hi,hin,hin,hin,hins,
letzeburgesch,"Indo-European languages,Indo-European","Luxembourgish language,Luxembourgish, Letzeburgesch","lang=lb,Lëtzebuergesch",lb,ltz,ltz,ltz,,
norsk,"Indo-European languages,Indo-European","Norwegian language,Norwegian","lang=no,Norsk",no,nor,nor,"nor + ISO 639 macrolanguage#nor,2",,"macrolanguage, Bokmål is nb/nob, Nynorsk is nn/nno"
chamorro,"Austronesian languages,Austronesian","Chamorro language,Chamorro","lang=ch,Chamoru",ch,cha,cha,cha,,
inuktitut,"Eskimo–Aleut languages,Eskimo–Aleut",Inuktitut,"lang=iu,ᐃᓄᒃᑎᑐᑦ",iu,iku,iku,"iku + ISO 639 macrolanguage#iku,2",,macrolanguage
hebrew modern,"Afro-Asiatic languages,Afro-Asiatic","Hebrew language,Hebrew modern","lang=he dir=rtl,<!--rtl-->עברית<!--rtl-->",he,heb,heb,heb,,
dzongkha,"Sino-Tibetan languages,Sino-Tibetan","Dzongkha language,Dzongkha","lang=dz,རྫོང་ཁ",dz,dzo,dzo,dzo,,
ꆈꌠ꒿ nuosuhxop,"Sino-Tibetan languages,Sino-Tibetan","Nuosu language,Nuosu","lang=ii,ꆈꌠ꒿ Nuosuhxop",ii,iii,iii,iii,,Standard form of Yi languages
church slavonic,"Indo-European languages,Indo-European","Old Church Slavonic, Church Slavic, Church Slavonic, Old Bulgarian, Old Slavonic","lang=cu,ѩзыкъ словѣньскъ",cu,chu,chu,chu,,"ancient languages,ancient"
аҧсуа бызшәа,"Northwest Caucasian languages,Northwest Caucasian","Abkhaz language,Abkhaz","lang=ab,аҧсуа бызшәа, аҧсшәа",ab,abk,abk,abk,abks,
pulaar,"Niger–Congo languages,Niger–Congo","Fula language,Fula, Fulah, Pulaar, Pular","lang=ff,Fulfulde, Pulaar, Pular",ff,ful,ful,"ful + ISO 639 macrolanguage#ful,9",,macrolanguage
bulgarian,"Indo-European languages,Indo-European","Bulgarian language,Bulgarian","lang=bg,български език",bg,bul,bul,bul,buls,
kajin m̧ajeļ,"Austronesian languages,Austronesian","Marshallese language,Marshallese","lang=mh,Kajin M̧ajeļ",mh,mah,mah,mah,,
lietuvių kalba,"Indo-European languages,Indo-European","Lithuanian language,Lithuanian","lang=lt,lietuvių kalba",lt,lit,lit,lit,,
georgian,"South Caucasian languages,South Caucasian","Georgian language,Georgian","lang=ka,ქართული",ka,kat,geo,kat,,
malay,"Austronesian languages,Austronesian","Malay language,Malay","{{lang,ms,bahasa Melayu}}, {{rtl-lang,ms-Arab,<!--rtl-->بهاس ملايو<!--rtl-->}}",ms,msa,may,"msa + ISO 639 macrolanguage#msa,13",,"macrolanguage, Malaysian language,Standard Malay is zsm, Indonesian language,Indonesian is id/ind"
tahitian,"Austronesian languages,Austronesian","Tahitian language,Tahitian","lang=ty,Reo Tahiti",ty,tah,tah,tah,,One of the Reo Mā`ohi languages of French Polynesia
luxembourgish,"Indo-European languages,Indo-European","Luxembourgish language,Luxembourgish, Letzeburgesch","lang=lb,Lëtzebuergesch",lb,ltz,ltz,ltz,,
yorùbá,"Niger–Congo languages,Niger–Congo","Yoruba language,Yoruba","lang=yo,Yorùbá",yo,yor,yor,yor,,
kiswahili,"Niger–Congo languages,Niger–Congo","Swahili language,Swahili","lang=sw,Kiswahili",sw,swa,swa,"swa + ISO 639 macrolanguage#swa,2",,macrolanguage
komi,"Uralic languages,Uralic","Komi language,Komi","lang=kv,коми кыв",kv,kom,kom,"kom + ISO 639 macrolanguage#kom,2",,macrolanguage
central,"Sino-Tibetan languages,Sino-Tibetan","Standard Tibetan,Tibetan Standard, Tibetan, Central","lang=bo,བོད་ཡིག",bo,bod,tib,bod,,
ojibwe,"Algonquian languages,Algonquian","Ojibwe language,Ojibwe, Ojibwa","lang=oj,ᐊᓂᔑᓈᐯᒧᐎᓐ",oj,oji,oji,"oji + ISO 639 macrolanguage#oji,7",,macrolanguage
kalaallisut,"Eskimo–Aleut languages,Eskimo–Aleut","Kalaallisut language,Kalaallisut, Greenlandic","lang=kl,kalaallisut, kalaallit oqaasii",kl,kal,kal,kal,,
eʋegbe,"Niger–Congo languages,Niger–Congo","Ewe language,Ewe","lang=ee,Eʋegbe",ee,ewe,ewe,ewe,,
slovenský jazyk,"Indo-European languages,Indo-European","Slovak language,Slovak","lang=sk, slovenčina, slovenský jazyk",sk,slk,slo,slk,,
gjuha shqipe,"Indo-European languages,Indo-European","Albanian language,Albanian","lang=sq,gjuha shqipe",sq,sqi,alb,"sqi + ISO 639 macrolanguage#sqi,4",–,"macrolanguage, Albanian Phylozone in 639-6"
tagalog,"Austronesian languages,Austronesian","Tagalog language,Tagalog","lang=tl,Wikang Tagalog, ᜏᜒᜃᜅ᜔ ᜆᜄᜎᜓᜄ᜔",tl,tgl,tgl,tgl,,"Note: Filipino language,Filipino Pilipino has the code fil"
fulfulde,"Niger–Congo languages,Niger–Congo","Fula language,Fula, Fulah, Pulaar, Pular","lang=ff,Fulfulde, Pulaar, Pular",ff,ful,ful,"ful + ISO 639 macrolanguage#ful,9",,macrolanguage
asụsụ igbo,"Niger–Congo languages,Niger–Congo","Igbo language,Igbo","lang=ig,Asụsụ Igbo",ig,ibo,ibo,ibo,,
zhuang,"Tai–Kadai languages,Tai–Kadai","Zhuang languages,Zhuang, Chuang","lang=za,Saɯ cueŋƅ, Saw cuengh",za,zha,zha,"zha + ISO 639 macrolanguage#zha,16",,macrolanguage
swedish,"Indo-European languages,Indo-European","Swedish language,Swedish","lang=sv,Svenska",sv,swe,swe,swe,,
south ndebele,"Niger–Congo languages,Niger–Congo","Southern Ndebele language,South Ndebele","lang=nr,isiNdebele",nr,nbl,nbl,nbl,,
persian farsi,"Indo-European languages,Indo-European","Persian language,Persian Farsi","lang=fa dir=rtl,<!--rtl-->فارسی<!--rtl-->",fa,fas,per,"fas + ISO 639 macrolanguage#fas,2",,macrolanguage
ខ្មែរ,"Austroasiatic languages,Austroasiatic","Khmer language,Khmer","lang=km,ខ្មែរ, ខេមរភាសា, ភាសាខ្មែរ",km,khm,khm,khm,,a.k.a. Cambodian
eesti keel,"Uralic languages,Uralic","Estonian language,Estonian","lang=et,eesti, eesti keel",et,est,est,"est + ISO 639 macrolanguage#est,2",,macrolanguage
iñupiatun,"Eskimo–Aleut languages,Eskimo–Aleut","Inupiaq language,Inupiaq","lang=ik,Iñupiaq, Iñupiatun",ik,ipk,ipk,"ipk + ISO 639 macrolanguage#ipk,2",,macrolanguage
church slavic,"Indo-European languages,Indo-European","Old Church Slavonic, Church Slavic, Church Slavonic, Old Bulgarian, Old Slavonic","lang=cu,ѩзыкъ словѣньскъ",cu,chu,chu,chu,,"ancient languages,ancient"
kyrgyz,"Turkic languages,Turkic","Kyrgyz language,Kyrgyz","lang=ky,Кыргызча, Кыргыз тили",ky,kir,kir,kir,,
afaraf,"Afro-Asiatic languages,Afro-Asiatic","Afar language,Afar","lang=aa,Afaraf",aa,aar,aar,aar,aars,
rumantsch grischun,"Indo-European languages,Indo-European","Romansh language,Romansh","lang=rm,rumantsch grischun",rm,roh,roh,roh,,
nauruan,"Austronesian languages,Austronesian","Nauruan language,Nauru","lang=na,Ekakairũ Naoero",na,nau,nau,nau,,
lao,"Tai–Kadai languages,Tai–Kadai","Lao language,Lao","lang=lo,ພາສາລາວ",lo,lao,lao,lao,,
tshiluba,"Niger–Congo languages,Niger–Congo","Tshiluba language,Luba-Katanga",Tshiluba,lu,lub,lub,lub,,
scottish gaelic,"Indo-European languages,Indo-European","Scottish Gaelic language,Scottish Gaelic, Gaelic","lang=gd,Gàidhlig",gd,gla,gla,gla,,
lithuanian,"Indo-European languages,Indo-European","Lithuanian language,Lithuanian","lang=lt,lietuvių kalba",lt,lit,lit,lit,,
valencià,"Indo-European languages,Indo-European","Catalan language,Catalan, Valencian","lang=ca,català, valencià",ca,cat,cat,cat,,
fijian,"Austronesian languages,Austronesian","Fijian language,Fijian","lang=fj,vosa Vakaviti",fj,fij,fij,fij,,
maltese,"Afro-Asiatic languages,Afro-Asiatic","Maltese language,Maltese","lang=mt,Malti",mt,mlt,mlt,mlt,,
owambo,"Niger–Congo languages,Niger–Congo",Ndonga,"lang=ng,Owambo",ng,ndo,ndo,ndo,,
kashmiri,"Indo-European languages,Indo-European","Kashmiri language,Kashmiri","{{lang,ks-Deva,कश्मीरी}}, {{rtl-lang,ks-Arb,<!--rtl-->كشميري<!--rtl-->}}",ks,kas,kas,kas,,
tiếng việt,"Austroasiatic languages,Austroasiatic","Vietnamese language,Vietnamese","lang=vi,Tiếng Việt",vi,vie,vie,vie,,
ဗမာစာ,"Sino-Tibetan languages,Sino-Tibetan","Burmese language,Burmese","lang=my,ဗမာစာ",my,mya,bur,mya,,
greek,"Indo-European languages,Indo-European","Greek language,Greek, Modern","lang=el,ελληνικά",el,ell,gre,ell,ells,
русский язык,"Indo-European languages,Indo-European","Russian language,Russian","lang=ru,русский язык",ru,rus,rus,rus,,
português,"Indo-European languages,Indo-European","Portuguese language,Portuguese","lang=pt,português",pt,por,por,por,,
norsk bokmål,"Indo-European languages,Indo-European","Bokmål,Norwegian Bokmål","lang=nb,Norsk bokmål",nb,nob,nob,nob,,Covered by macrolanguage no/nor
south azerbaijani,"Turkic languages,Turkic","South Azerbaijani language,South Azerbaijani","{{rtl-lang,Azb,<!--rtl-->تورکجه<!--rtl-->}}",az,azb,azb,azb,,
ಕನ್ನಡ,"Dravidian languages,Dravidian","Kannada language,Kannada","lang=kn,ಕನ್ನಡ",kn,kan,kan,kan,,
भोजपुरी,"Indo-European languages,Indo-European","Bihari languages,Bihari","lang=bh,भोजपुरी",bh,bih,bih,–,,"Collective language code for Bhojpuri language,Bhojpuri, Magahi language,Magahi, and Maithili language,Maithili"
cymraeg,"Indo-European languages,Indo-European","Welsh language,Welsh","lang=cy,Cymraeg",cy,cym,wel,cym,,
galician,"Indo-European languages,Indo-European","Galician language,Galician","lang=gl,galego",gl,glg,glg,glg,,
sotho,"Niger–Congo languages,Niger–Congo","Sotho language,Southern Sotho","lang=st,Sesotho",st,sot,sot,sot,,
ewe,"Niger–Congo languages,Niger–Congo","Ewe language,Ewe","lang=ee,Eʋegbe",ee,ewe,ewe,ewe,,
quechua,"Quechuan languages,Quechuan","Quechua language,Quechua","lang=qu,Runa Simi, Kichwa",qu,que,que,"que + ISO 639 macrolanguage#que,44",,macrolanguage
urdu,"Indo-European languages,Indo-European",Urdu,"lang=ur dir=rtl,<!--rtl-->اردو<!--rtl-->",ur,urd,urd,urd,,
føroyskt,"Indo-European languages,Indo-European","Faroese language,Faroese","lang=fo,føroyskt",fo,fao,fao,fao,,
oriya,"Indo-European languages,India-Asia","Oriya language,Oriya","lang=or,ଓଡ଼ିଆ",or,ori,ori,ori,,
bangla,"Indo-European languages,Indo-European","Bengali language,Bengali, Bangla","lang=bn,বাংলা",bn,ben,ben,ben,,
ᜏᜒᜃᜅ᜔ ᜆᜄᜎᜓᜄ᜔,"Austronesian languages,Austronesian","Tagalog language,Tagalog","lang=tl,Wikang Tagalog, ᜏᜒᜃᜅ᜔ ᜆᜄᜎᜓᜄ᜔",tl,tgl,tgl,tgl,,"Note: Filipino language,Filipino Pilipino has the code fil"
български език,"Indo-European languages,Indo-European","Bulgarian language,Bulgarian","lang=bg,български език",bg,bul,bul,bul,buls,
cree,"Algonquian languages,Algonquian","Cree language,Cree","lang=cr,ᓀᐦᐃᔭᐍᐏᐣ",cr,cre,cre,"cre + ISO 639 macrolanguage#cre,6",,macrolanguage
hiri motu,"Austronesian languages,Austronesian","Hiri Motu language,Hiri Motu","lang=ho,Hiri Motu",ho,hmo,hmo,hmo,,
bamanankan,"Niger–Congo languages,Niger–Congo","Bambara language,Bambara","lang=bm,bamanankan",bm,bam,bam,bam,,
tigrinya,"Afro-Asiatic languages,Afro-Asiatic","Tigrinya language,Tigrinya","lang=ti,ትግርኛ",ti,tir,tir,tir,,
ᓀᐦᐃᔭᐍᐏᐣ,"Algonquian languages,Algonquian","Cree language,Cree","lang=cr,ᓀᐦᐃᔭᐍᐏᐣ",cr,cre,cre,"cre + ISO 639 macrolanguage#cre,6",,macrolanguage
maldivian,"Indo-European languages,Indo-European","Dhivehi language,Divehi, Dhivehi, Maldivian,","lang=dv dir=rtl,<!--rtl-->ދިވެހި<!--rtl-->",dv,div,div,div,,
divehi,"Indo-European languages,Indo-European","Dhivehi language,Divehi, Dhivehi, Maldivian,","lang=dv dir=rtl,<!--rtl-->ދިވެހި<!--rtl-->",dv,div,div,div,,
romansh,"Indo-European languages,Indo-European","Romansh language,Romansh","lang=rm,rumantsch grischun",rm,roh,roh,roh,,
සිංහල,"Indo-European languages,Indo-European","Sinhala language,Sinhala, Sinhalese","lang=si,සිංහල",si,sin,sin,sin,,
aymar aru,"Aymaran languages,Aymaran","Aymara language,Aymara","lang=ay,aymar aru",ay,aym,aym,"aym + ISO 639 macrolanguage#aym,2",,macrolanguage
አማርኛ,"Afro-Asiatic languages,Afro-Asiatic","Amharic language,Amharic","lang=am,አማርኛ",am,amh,amh,amh,,
soomaaliga,"Afro-Asiatic languages,Afro-Asiatic","Somali language,Somali","lang=so,Soomaaliga, af Soomaali",so,som,som,som,,
bislama,"Creole languages,Creole","Bislama language,Bislama","lang=bi,Bislama",bi,bis,bis,bis,,
ndonga,"Niger–Congo languages,Niger–Congo",Ndonga,"lang=ng,Owambo",ng,ndo,ndo,ndo,,
kwanyama,"Niger–Congo languages,Niger–Congo","Kwanyama, Kuanyama","lang=kj,Kuanyama",kj,kua,kua,kua,,
persian,"Indo-European languages,Indo-European","Persian language,Persian Farsi","lang=fa dir=rtl,<!--rtl-->فارسی<!--rtl-->",fa,fas,per,"fas + ISO 639 macrolanguage#fas,2",,macrolanguage
yiddish,"Indo-European languages,Indo-European","Yiddish language,Yiddish","lang=yi dir=rtl,<!--rtl-->ייִדיש<!--rtl-->",yi,yid,yid,"yid + ISO 639 macrolanguage#yid,2",,macrolanguage
অসমীয়া,"Indo-European languages,Indo-European","Assamese language,Assamese","lang=as,অসমীয়া",as,asm,asm,asm,,
galego,"Indo-European languages,Indo-European","Galician language,Galician","lang=gl,galego",gl,glg,glg,glg,,
český jazyk,"Indo-European languages,Indo-European","Czech language,Czech","lang=cs,čeština, český jazyk",cs,ces,cze,ces,,
dutch,"Indo-European languages,Indo-European","Dutch language,Dutch","lang=nl,Nederlands, Vlaams",nl,nld,dut,nld,,
Հայերեն,"Indo-European languages,Indo-European","Armenian language,Armenian","lang=hy,Հայերեն",hy,hye,arm,hye,,
malagasy,"Austronesian languages,Austronesian","Malagasy language,Malagasy","lang=mg,fiteny malagasy",mg,mlg,mlg,"mlg + ISO 639 macrolanguage#mlg,10",,macrolanguage
чӑваш чӗлхи,"Turkic languages,Turkic","Chuvash language,Chuvash","lang=cv,чӑваш чӗлхи",cv,chv,chv,chv,,
dhivehi,"Indo-European languages,Indo-European","Dhivehi language,Divehi, Dhivehi, Maldivian,","lang=dv dir=rtl,<!--rtl-->ދިވެހި<!--rtl-->",dv,div,div,div,,
беларуская мова,"Indo-European languages,Indo-European","Belarusian language,Belarusian","lang=be,беларуская мова",be,bel,bel,bel,,
abkhaz,"Northwest Caucasian languages,Northwest Caucasian","Abkhaz language,Abkhaz","lang=ab,аҧсуа бызшәа, аҧсшәа",ab,abk,abk,abk,abks,
sinhalese,"Indo-European languages,Indo-European","Sinhala language,Sinhala, Sinhalese","lang=si,සිංහල",si,sin,sin,sin,,
aragonese,"Indo-European languages,Indo-European","Aragonese language,Aragonese","lang=an,aragonés",an,arg,arg,arg,,
རྫོང་ཁ,"Sino-Tibetan languages,Sino-Tibetan","Dzongkha language,Dzongkha","lang=dz,རྫོང་ཁ",dz,dzo,dzo,dzo,,
southern ndebele,"Niger–Congo languages,Niger–Congo","Southern Ndebele language,South Ndebele","lang=nr,isiNdebele",nr,nbl,nbl,nbl,,
lingala,"Niger–Congo languages,Niger–Congo","Lingala language,Lingala","lang=ln,Lingála",ln,lin,lin,lin,,
Түркмен,"Turkic languages,Turkic","Turkmen language,Turkmen","lang=tk,Türkmen, Түркмен",tk,tuk,tuk,tuk,,
latviešu valoda,"Indo-European languages,Indo-European","Latvian language,Latvian","lang=lv,latviešu valoda",lv,lav,lav,"lav + ISO 639 macrolanguage#lav,2",,macrolanguage
ikirundi,"Niger–Congo languages,Niger–Congo",Kirundi,"lang=rn,Ikirundi",rn,run,run,run,,
tatar,"Turkic languages,Turkic","Tatar language,Tatar","{{lang,tt-Cyrl,татар теле}}, {{lang,tt-Latn,tatar tele}}",tt,tat,tat,tat,,
corsican,"Indo-European languages,Indo-European","Corsican language,Corsican","lang=co,corsu, lingua corsa",co,cos,cos,cos,,
spanish,"Indo-European languages,Indo-European","Spanish language,Spanish, Castilian","lang=es,español, castellano",es,spa,spa,spa,,
मराठी,"Indo-European languages,Indo-European","Marathi language,Marathi Marāṭhī","lang=mr,मराठी",mr,mar,mar,mar,,
esperanto,"Constructed languages,Constructed",Esperanto,"lang=eo,Esperanto",eo,epo,epo,epo,,"Constructed languages,constructed"
norsk nynorsk,"Indo-European languages,Indo-European","Nynorsk,Norwegian Nynorsk","lang=nn,Norsk nynorsk",nn,nno,nno,nno,,Covered by macrolanguage no/nor
tongan,"Austronesian languages,Austronesian","Tongan language,Tonga Tonga Islands","lang=to,faka Tonga",to,ton,ton,ton,,
བོད་ཡིག,"Sino-Tibetan languages,Sino-Tibetan","Standard Tibetan,Tibetan Standard, Tibetan, Central","lang=bo,བོད་ཡིག",bo,bod,tib,bod,,
setswana,"Niger–Congo languages,Niger–Congo","Tswana language,Tswana","lang=tn,Setswana",tn,tsn,tsn,tsn,,
walon,"Indo-European languages,Indo-European","Walloon language,Walloon","lang=wa,walon",wa,wln,wln,wln,,
ພາສາລາວ,"Tai–Kadai languages,Tai–Kadai","Lao language,Lao","lang=lo,ພາສາລາວ",lo,lao,lao,lao,,
inupiaq,"Eskimo–Aleut languages,Eskimo–Aleut","Inupiaq language,Inupiaq","lang=ik,Iñupiaq, Iñupiatun",ik,ipk,ipk,"ipk + ISO 639 macrolanguage#ipk,2",,macrolanguage
danish,"Indo-European languages,Indo-European","Danish language,Danish","lang=da,dansk",da,dan,dan,dan,,
zhuang s,"Tai–Kadai languages,Tai–Kadai","Zhuang languages,Zhuang, Chuang","lang=za,Saɯ cueŋƅ, Saw cuengh",za,zha,zha,"zha + ISO 639 macrolanguage#zha,16",,macrolanguage
basa sunda,"Austronesian languages,Austronesian","Sundanese language,Sundanese","lang=su,Basa Sunda",su,sun,sun,sun,,
bambara,"Niger–Congo languages,Niger–Congo","Bambara language,Bambara","lang=bm,bamanankan",bm,bam,bam,bam,,
greenlandic,"Eskimo–Aleut languages,Eskimo–Aleut","Kalaallisut language,Kalaallisut, Greenlandic","lang=kl,kalaallisut, kalaallit oqaasii",kl,kal,kal,kal,,
sesotho,"Niger–Congo languages,Niger–Congo","Sotho language,Southern Sotho","lang=st,Sesotho",st,sot,sot,sot,,
suomi,"Uralic languages,Uralic","Finnish language,Finnish","lang=fi,suomi, suomen kieli",fi,fin,fin,fin,,
panjabi,"Indo-European languages,Indo-European","Punjabi language,Panjabi, Punjabi","{{lang,pa,ਪੰਜਾਬੀ}}, {{rtl-lang,pa-Arab,<!--rtl-->پنجابی<!--rtl-->}}",pa,pan,pan,pan,,
català,"Indo-European languages,Indo-European","Catalan language,Catalan, Valencian","lang=ca,català, valencià",ca,cat,cat,cat,,
akan,"Niger–Congo languages,Niger–Congo","Akan language,Akan","lang=ak,Akan",ak,aka,aka,"aka + ISO 639 macrolanguage#aka,2",,"macrolanguage, Twi language,Twi is tw/twi, Fanti language,Fanti is fat"
modern,"Indo-European languages,Indo-European","Greek language,Greek, Modern","lang=el,ελληνικά",el,ell,gre,ell,ells,
монгол,"Mongolic languages,Mongolic","Mongolian language,Mongolian","lang=mn,монгол",mn,mon,mon,"mon + ISO 639 macrolanguage#mon,2",,macrolanguage
chuvash,"Turkic languages,Turkic","Chuvash language,Chuvash","lang=cv,чӑваш чӗлхи",cv,chv,chv,chv,,
mongolian,"Mongolic languages,Mongolic","Mongolian language,Mongolian","lang=mn,монгол",mn,mon,mon,"mon + ISO 639 macrolanguage#mon,2",,macrolanguage
wikang tagalog,"Austronesian languages,Austronesian","Tagalog language,Tagalog","lang=tl,Wikang Tagalog, ᜏᜒᜃᜅ᜔ ᜆᜄᜎᜓᜄ᜔",tl,tgl,tgl,tgl,,"Note: Filipino language,Filipino Pilipino has the code fil"
malti,"Afro-Asiatic languages,Afro-Asiatic","Maltese language,Maltese","lang=mt,Malti",mt,mlt,mlt,mlt,,
samoan,"Austronesian Languages,Austronesian","Samoan language,Samoan","lang=sm,gagana faa Samoa",sm,smo,smo,smo,,
burmese,"Sino-Tibetan languages,Sino-Tibetan","Burmese language,Burmese","lang=my,ဗမာစာ",my,mya,bur,mya,,
aragonés,"Indo-European languages,Indo-European","Aragonese language,Aragonese","lang=an,aragonés",an,arg,arg,arg,,
latine,"Indo-European languages,Indo-European",Latin,"lang=la,latine, lingua latina",la,lat,lat,lat,lats,ancient
valencian,"Indo-European languages,Indo-European","Catalan language,Catalan, Valencian","lang=ca,català, valencià",ca,cat,cat,cat,,
bosnian,"Indo-European languages,Indo-European","Bosnian language,Bosnian","lang=bs,bosanski jezik",bs,bos,bos,bos,boss,
sindhi,"Indo-European languages,Indo-European","Sindhi language,Sindhi","{{lang,sd-Deva,सिन्धी}}, {{rtl-lang,sd-Arab,<!--rtl-->سنڌي، سندھی<!--rtl-->}}",sd,snd,snd,snd,,
korean,Language isolate,"Korean language,Korean","{{lang,ko-Hang,한국어}} {{lang,ko-Hani,韓國語}}, {{lang,ko-Hang,조선어}} {{lang,ko-Hani,朝鮮語}}<!-- ideograph is used in Korea-->",ko,kor,kor,kor,,
isixhosa,"Niger–Congo languages,Niger–Congo","Xhosa language,Xhosa","lang=xh,isiXhosa",xh,xho,xho,xho,,
navaho,"Dené–Yeniseian languages,Dené–Yeniseian","Navajo language,Navajo, Navaho","lang=nv,Diné bizaad, Dinékʼehǰí",nv,nav,nav,nav,,
ukrainian,"Indo-European languages,Indo-European","Ukrainian language,Ukrainian","lang=uk,українська мова",uk,ukr,ukr,ukr,,
nyanja,"Niger–Congo languages,Niger–Congo","Chichewa language,Chichewa, Chewa, Nyanja","lang=ny,chiCheŵa, chinyanja",ny,nya,nya,nya,,
tsonga,"Niger–Congo languages,Niger–Congo","Tsonga language,Tsonga","lang=ts,Xitsonga",ts,tso,tso,tso,,
tibetan,"Sino-Tibetan languages,Sino-Tibetan","Standard Tibetan,Tibetan Standard, Tibetan, Central","lang=bo,བོད་ཡིག",bo,bod,tib,bod,,
kreyòl ayisyen,"Creole languages,Creole","Haitian Creole language,Haitian, Haitian Creole","lang=ht,Kreyòl ayisyen",ht,hat,hat,hat,,
kanuri,"Nilo-Saharan languages,Nilo-Saharan","Kanuri language,Kanuri","lang=kr,Kanuri",kr,kau,kau,"kau + ISO 639 macrolanguage#kau,3",,macrolanguage
slovene,"Indo-European languages,Indo-European","Slovene language,Slovene","lang=sl,slovenski jezik, slovenščina",sl,slv,slv,slv,,
pushto,"Indo-European languages,Indo-European","Pashto language,Pashto, Pushto","lang=ps dir=rtl,<!--rtl-->پښتو<!--rtl-->",ps,pus,pus,"pus + ISO 639 macrolanguage#pus,3",,macrolanguage
punjabi,"Indo-European languages,Indo-European","Punjabi language,Panjabi, Punjabi","{{lang,pa,ਪੰਜਾਬੀ}}, {{rtl-lang,pa-Arab,<!--rtl-->پنجابی<!--rtl-->}}",pa,pan,pan,pan,,
occidental,"Constructed languages,Constructed","Interlingue language,Interlingue","lang=ie,Originally called Occidental language,Occidental, then Interlingue after WWII",ie,ile,ile,ile,,"constructed by Edgar de Wahl, first published in 1922"
Кыргызча,"Turkic languages,Turkic","Kyrgyz language,Kyrgyz","lang=ky,Кыргызча, Кыргыз тили",ky,kir,kir,kir,,
ossetian,"Indo-European languages,Indo-European","Ossetic language,Ossetian, Ossetic","lang=os,ирон æвзаг",os,oss,oss,oss,,
bokmål,"Indo-European languages,Indo-European","Bokmål,Norwegian Bokmål","lang=nb,Norsk bokmål",nb,nob,nob,nob,,Covered by macrolanguage no/nor
luganda,"Niger–Congo languages,Niger–Congo","Luganda,Ganda","lang=lg,Luganda",lg,lug,lug,lug,,
german,"Indo-European languages,Indo-European","German language,German","lang=de,Deutsch",de,deu,ger,deu,deus,
gikuyu,"Niger–Congo languages,Niger–Congo","Gikuyu language,Kikuyu, Gikuyu","lang=ki,Gĩkũyũ",ki,kik,kik,kik,,
avestan,"Indo-European languages,Indo-European","Avestan language,Avestan","lang=ae,avesta",ae,ave,ave,ave,,"ancient languages,ancient"
ქართული,"South Caucasian languages,South Caucasian","Georgian language,Georgian","lang=ka,ქართული",ka,kat,geo,kat,,
slovenski jezik,"Indo-European languages,Indo-European","Slovene language,Slovene","lang=sl,slovenski jezik, slovenščina",sl,slv,slv,slv,,
thai,"Tai–Kadai languages,Tai–Kadai","Thai language,Thai","lang=th,ไทย",th,tha,tha,tha,,
romanian,"Indo-European languages,Indo-European","Romanian language,Romanian,","lang=ro,limba română",ro,ron,rum,ron,,"mo for Moldavian has been withdrawn, recommending ro also for Moldavian"
avar,"Northeast Caucasian languages,Northeast Caucasian","Avar language,Avaric","lang=av,авар мацӀ, магӀарул мацӀ",av,ava,ava,ava,,
kernewek,"Indo-European languages,Indo-European","Cornish language,Cornish","lang=kw, Kernewek",kw,cor,cor,cor,,
iñupiaq,"Eskimo–Aleut languages,Eskimo–Aleut","Inupiaq language,Inupiaq","lang=ik,Iñupiaq, Iñupiatun",ik,ipk,ipk,"ipk + ISO 639 macrolanguage#ipk,2",,macrolanguage
lingua latina,"Indo-European languages,Indo-European",Latin,"lang=la,latine, lingua latina",la,lat,lat,lat,lats,ancient
hungarian,"Uralic languages,Uralic","Hungarian language,Hungarian","lang=hu,magyar",hu,hun,hun,hun,,
yângâ tî sängö,"Creole languages,Creole","Sango language,Sango","lang=sg,yângâ tî sängö",sg,sag,sag,sag,,
dansk,"Indo-European languages,Indo-European","Danish language,Danish","lang=da,dansk",da,dan,dan,dan,,
қазақ тілі,"Turkic languages,Turkic","Kazakh language,Kazakh","lang=kk,қазақ тілі",kk,kaz,kaz,kaz,,
kuanyama,"Niger–Congo languages,Niger–Congo","Kwanyama, Kuanyama","lang=kj,Kuanyama",kj,kua,kua,kua,,
bahasa indonesia,"Austronesian languages,Austronesian","Indonesian language,Indonesian","lang=id,Bahasa Indonesia",id,ind,ind,ind,,Covered by macrolanguage ms/msa
ᐃᓄᒃᑎᑐᑦ,"Eskimo–Aleut languages,Eskimo–Aleut",Inuktitut,"lang=iu,ᐃᓄᒃᑎᑐᑦ",iu,iku,iku,"iku + ISO 639 macrolanguage#iku,2",,macrolanguage
हिन्दी,"Indo-European languages,Indo-European",Hindi,"lang=hi,हिन्दी, हिंदी",hi,hin,hin,hin,hins,
svenska,"Indo-European languages,Indo-European","Swedish language,Swedish","lang=sv,Svenska",sv,swe,swe,swe,,
ភាសាខ្មែរ,"Austroasiatic languages,Austroasiatic","Khmer language,Khmer","lang=km,ខ្មែរ, ខេមរភាសា, ភាសាខ្មែរ",km,khm,khm,khm,,a.k.a. Cambodian
occitan,"Indo-European languages,Indo-European","Occitan language,Occitan","lang=oc,occitan, lenga dòc",oc,oci,oci,oci,,
frysk,"Indo-European languages,Indo-European","West Frisian language,Western Frisian","lang=fy,Frysk",fy,fry,fry,fry,,
தமிழ்,"Dravidian languages,Dravidian","Tamil language,Tamil","lang=ta,தமிழ்",ta,tam,tam,tam,,
chewa,"Niger–Congo languages,Niger–Congo","Chichewa language,Chichewa, Chewa, Nyanja","lang=ny,chiCheŵa, chinyanja",ny,nya,nya,nya,,
vlaams,"Indo-European languages,Indo-European","Dutch language,Dutch","lang=nl,Nederlands, Vlaams",nl,nld,dut,nld,,
ekakairũ naoero,"Austronesian languages,Austronesian","Nauruan language,Nauru","lang=na,Ekakairũ Naoero",na,nau,nau,nau,,
nauru,"Austronesian languages,Austronesian","Nauruan language,Nauru","lang=na,Ekakairũ Naoero",na,nau,nau,nau,,
te reo māori,"Austronesian languages,Austronesian","Māori language,Māori","lang=mi,te reo Māori",mi,mri,mao,mri,,
latin,"Indo-European languages,Indo-European",Latin,"lang=la,latine, lingua latina",la,lat,lat,lat,lats,ancient
తెలుగు,"Dravidian languages,Dravidian","Telugu language,Telugu","lang=te,తెలుగు",te,tel,tel,tel,,
магӀарул мацӀ,"Northeast Caucasian languages,Northeast Caucasian","Avar language,Avaric","lang=av,авар мацӀ, магӀарул мацӀ",av,ava,ava,ava,,
lenga dòc,"Indo-European languages,Indo-European","Occitan language,Occitan","lang=oc,occitan, lenga dòc",oc,oci,oci,oci,,
french,"Indo-European languages,Indo-European","French language,French","lang=fr,français, langue française",fr,fra,fre,fra,fras,
bashkir,"Turkic languages,Turkic","Bashkir language,Bashkir","lang=ba,башҡорт теле",ba,bak,bak,bak,,
manx,"Indo-European languages,Indo-European","Manx language,Manx","lang=gv,Gaelg, Gailck",gv,glv,glv,glv,,
old bulgarian,"Indo-European languages,Indo-European","Old Church Slavonic, Church Slavic, Church Slavonic, Old Bulgarian, Old Slavonic","lang=cu,ѩзыкъ словѣньскъ",cu,chu,chu,chu,,"ancient languages,ancient"
javanese,"Austronesian languages,Austronesian","Javanese language,Javanese","lang=jv,basa Jawa",jv,jav,jav,jav,,
chamoru,"Austronesian languages,Austronesian","Chamorro language,Chamorro","lang=ch,Chamoru",ch,cha,cha,cha,,
afar,"Afro-Asiatic languages,Afro-Asiatic","Afar language,Afar","lang=aa,Afaraf",aa,aar,aar,aar,aars,
xitsonga,"Niger–Congo languages,Niger–Congo","Tsonga language,Tsonga","lang=ts,Xitsonga",ts,tso,tso,tso,,
armenian,"Indo-European languages,Indo-European","Armenian language,Armenian","lang=hy,Հայերեն",hy,hye,arm,hye,,
аҧсшәа,"Northwest Caucasian languages,Northwest Caucasian","Abkhaz language,Abkhaz","lang=ab,аҧсуа бызшәа, аҧсшәа",ab,abk,abk,abk,abks,
коми кыв,"Uralic languages,Uralic","Komi language,Komi","lang=kv,коми кыв",kv,kom,kom,"kom + ISO 639 macrolanguage#kom,2",,macrolanguage
western frisian,"Indo-European languages,Indo-European","West Frisian language,Western Frisian","lang=fy,Frysk",fy,fry,fry,fry,,
basque,Language isolate,"Basque language,Basque","lang=eu,euskara, euskera",eu,eus,baq,eus,,
runa simi,"Quechuan languages,Quechuan","Quechua language,Quechua","lang=qu,Runa Simi, Kichwa",qu,que,que,"que + ISO 639 macrolanguage#que,44",,macrolanguage
saw cuengh,"Tai–Kadai languages,Tai–Kadai","Zhuang languages,Zhuang, Chuang","lang=za,Saɯ cueŋƅ, Saw cuengh",za,zha,zha,"zha + ISO 639 macrolanguage#zha,16",,macrolanguage
hindi,"Indo-European languages,Indo-European",Hindi,"lang=hi,हिन्दी, हिंदी",hi,hin,hin,hin,hins,
ଓଡ଼ିଆ,"Indo-European languages,India-Asia","Oriya language,Oriya","lang=or,ଓଡ଼ିଆ",or,ori,ori,ori,,
wolof,"Niger–Congo languages,Niger–Congo","Wolof language,Wolof","lang=wo,Wollof",wo,wol,wol,wol,,
limba română,"Indo-European languages,Indo-European","Romanian language,Romanian,","lang=ro,limba română",ro,ron,rum,ron,,"mo for Moldavian has been withdrawn, recommending ro also for Moldavian"
ትግርኛ,"Afro-Asiatic languages,Afro-Asiatic","Tigrinya language,Tigrinya","lang=ti,ትግርኛ",ti,tir,tir,tir,,
haitian creole,"Creole languages,Creole","Haitian Creole language,Haitian, Haitian Creole","lang=ht,Kreyòl ayisyen",ht,hat,hat,hat,,
chichewa,"Niger–Congo languages,Niger–Congo","Chichewa language,Chichewa, Chewa, Nyanja","lang=ny,chiCheŵa, chinyanja",ny,nya,nya,nya,,
dinékʼehǰí,"Dené–Yeniseian languages,Dené–Yeniseian","Navajo language,Navajo, Navaho","lang=nv,Diné bizaad, Dinékʼehǰí",nv,nav,nav,nav,,
assamese,"Indo-European languages,Indo-European","Assamese language,Assamese","lang=as,অসমীয়া",as,asm,asm,asm,,
tamil,"Dravidian languages,Dravidian","Tamil language,Tamil","lang=ta,தமிழ்",ta,tam,tam,tam,,
siswati,"Niger–Congo languages,Niger–Congo","Swati language,Swati","lang=ss,SiSwati",ss,ssw,ssw,ssw,,
gailck,"Indo-European languages,Indo-European","Manx language,Manx","lang=gv,Gaelg, Gailck",gv,glv,glv,glv,,
originally called occidental,"Constructed languages,Constructed","Interlingue language,Interlingue","lang=ie,Originally called Occidental language,Occidental, then Interlingue after WWII",ie,ile,ile,ile,,"constructed by Edgar de Wahl, first published in 1922"
herero,"Niger–Congo languages,Niger–Congo","Herero language,Herero","lang=hz,Otjiherero",hz,her,her,her,,
uzbek,"Turkic languages,Turkic","Uzbek language,Uzbek","{{lang,uz-Latn,O‘zbek}}, {{lang,uz-Cyrl,Ўзбек}}, {{rtl-lang,uz-Arab,<!--rtl-->أۇزبېك<!--rtl-->}}",uz,uzb,uzb,"uzb + ISO 639 macrolanguage#uzb,2",,macrolanguage
malayalam,"Dravidian languages,Dravidian","Malayalam language,Malayalam","lang=ml,മലയാളം",ml,mal,mal,mal,,
slovenčina,"Indo-European languages,Indo-European","Slovak language,Slovak","lang=sk, slovenčina, slovenský jazyk",sk,slk,slo,slk,,
авар мацӀ,"Northeast Caucasian languages,Northeast Caucasian","Avar language,Avaric","lang=av,авар мацӀ, магӀарул мацӀ",av,ava,ava,ava,,
sardu,"Indo-European languages,Indo-European","Sardinian language,Sardinian","lang=sc,sardu",sc,srd,srd,"srd + ISO 639 macrolanguage#srd,4",,macrolanguage
पाऴि,"Indo-European languages,Indo-European","Pāli language,Pāli","lang=pi,पाऴि",pi,pli,pli,pli,,ancient
polszczyzna,"Indo-European languages,Indo-European","Polish language,Polish","lang=pl,język polski, polszczyzna",pl,pol,pol,pol,pols,
fiteny malagasy,"Austronesian languages,Austronesian","Malagasy language,Malagasy","lang=mg,fiteny malagasy",mg,mlg,mlg,"mlg + ISO 639 macrolanguage#mlg,10",,macrolanguage
hebrew,"Afro-Asiatic languages,Afro-Asiatic","Hebrew language,Hebrew modern","lang=he dir=rtl,<!--rtl-->עברית<!--rtl-->",he,heb,heb,heb,,
arabic,"Afro-Asiatic languages,Afro-Asiatic","Arabic language,Arabic","lang=ar dir=rtl,<!--rtl-->العربية<!--rtl-->",ar,ara,ara,"ara + ISO 639 macrolanguage#ara,30",,"macrolanguage, Standard Arabic is arb"
breton,"Indo-European languages,Indo-European","Breton language,Breton","lang=br,brezhoneg",br,bre,bre,bre,,
euskara,Language isolate,"Basque language,Basque","lang=eu,euskara, euskera",eu,eus,baq,eus,,
azərbaycan dili,"Turkic languages,Turkic","Azerbaijani language,Azerbaijani","lang=az,azərbaycan dili",az,aze,aze,"aze + ISO 639 macrolanguage#aze,2",,macrolanguage
marathi marāṭhī,"Indo-European languages,Indo-European","Marathi language,Marathi Marāṭhī","lang=mr,मराठी",mr,mar,mar,mar,,
sardinian,"Indo-European languages,Indo-European","Sardinian language,Sardinian","lang=sc,sardu",sc,srd,srd,"srd + ISO 639 macrolanguage#srd,4",,macrolanguage
magyar,"Uralic languages,Uralic","Hungarian language,Hungarian","lang=hu,magyar",hu,hun,hun,hun,,
then interlingue after wwii,"Constructed languages,Constructed","Interlingue language,Interlingue","lang=ie,Originally called Occidental language,Occidental, then Interlingue after WWII",ie,ile,ile,ile,,"constructed by Edgar de Wahl, first published in 1922"
ગુજરાતી,"rowspan=, Indo-European languages,Indo-European","Gujarati language,Gujarati","lang=gu,ગુજરાતી",gu,guj,guj,guj,,
azerbaijani,"Turkic languages,Turkic","Azerbaijani language,Azerbaijani","lang=az,azərbaycan dili",az,aze,aze,"aze + ISO 639 macrolanguage#aze,2",,macrolanguage
castellano,"Indo-European languages,Indo-European","Spanish language,Spanish, Castilian","lang=es,español, castellano",es,spa,spa,spa,,
ѩзыкъ словѣньскъ,"Indo-European languages,Indo-European","Old Church Slavonic, Church Slavic, Church Slavonic, Old Bulgarian, Old Slavonic","lang=cu,ѩзыкъ словѣньскъ",cu,chu,chu,chu,,"ancient languages,ancient"
kikongo,"Niger–Congo languages,Niger–Congo","Kongo language,Kongo","lang=kg,KiKongo",kg,kon,kon,"kon + ISO 639 macrolanguage#kon,3",,macrolanguage
welsh,"Indo-European languages,Indo-European","Welsh language,Welsh","lang=cy,Cymraeg",cy,cym,wel,cym,,
gaeilge,"Indo-European languages,Indo-European","Irish language,Irish","lang=ga,Gaeilge",ga,gle,gle,gle,,
norwegian,"Indo-European languages,Indo-European","Norwegian language,Norwegian","lang=no,Norsk",no,nor,nor,"nor + ISO 639 macrolanguage#nor,2",,"macrolanguage, Bokmål is nb/nob, Nynorsk is nn/nno"
gĩkũyũ,"Niger–Congo languages,Niger–Congo","Gikuyu language,Kikuyu, Gikuyu","lang=ki,Gĩkũyũ",ki,kik,kik,kik,,
italian,"Indo-European languages,Indo-European","Italian language,Italian","lang=it,italiano",it,ita,ita,ita,itas,
kazakh,"Turkic languages,Turkic","Kazakh language,Kazakh","lang=kk,қазақ тілі",kk,kaz,kaz,kaz,,
gagana faa samoa,"Austronesian Languages,Austronesian","Samoan language,Samoan","lang=sm,gagana faa Samoa",sm,smo,smo,smo,,
turkmen,"Turkic languages,Turkic","Turkmen language,Turkmen","lang=tk,Türkmen, Түркмен",tk,tuk,tuk,tuk,,
kurdish,"Indo-European languages,Indo-European","Kurdish language,Kurdish","{{lang,ku-Latn,Kurdî}}, {{rtl-lang,ku-Arab,كوردی}}",ku,kur,kur,"kur + ISO 639 macrolanguage#kur,3",,macrolanguage
southern sotho,"Niger–Congo languages,Niger–Congo","Sotho language,Southern Sotho","lang=st,Sesotho",st,sot,sot,sot,,
limburger,"Indo-European languages,Indo-European","Limburgish language,Limburgish, Limburgan, Limburger","lang=li,Limburgs",li,lim,lim,lim,,
Кыргыз тили,"Turkic languages,Turkic","Kyrgyz language,Kyrgyz","lang=ky,Кыргызча, Кыргыз тили",ky,kir,kir,kir,,
eesti,"Uralic languages,Uralic","Estonian language,Estonian","lang=et,eesti, eesti keel",et,est,est,"est + ISO 639 macrolanguage#est,2",,macrolanguage
english,"Indo-European languages,Indo-European","English language,English","lang=en,English",en,eng,eng,eng,engs,
guaraní,"Tupian languages,Tupian","Guaraní language,Guaraní","lang=gn,Avañeẽ",gn,grn,grn,"grn + ISO 639 macrolanguage#grn,5",,macrolanguage
saɯ cueŋƅ,"Tai–Kadai languages,Tai–Kadai","Zhuang languages,Zhuang, Chuang","lang=za,Saɯ cueŋƅ, Saw cuengh",za,zha,zha,"zha + ISO 639 macrolanguage#zha,16",,macrolanguage
interlingua,"Constructed languages,Constructed",Interlingua,"lang=ia,Interlingua",ia,ina,ina,ina,,constructed by International Auxiliary Language Association
belarusian,"Indo-European languages,Indo-European","Belarusian language,Belarusian","lang=be,беларуская мова",be,bel,bel,bel,,
interlingue,"Constructed languages,Constructed","Interlingue language,Interlingue","lang=ie,Originally called Occidental language,Occidental, then Interlingue after WWII",ie,ile,ile,ile,,"constructed by Edgar de Wahl, first published in 1922"
macedonian,"Indo-European languages,Indo-European","Macedonian language,Macedonian","lang=mk,македонски јазик",mk,mkd,mac,mkd,,
polish,"Indo-European languages,Indo-European","Polish language,Polish","lang=pl,język polski, polszczyzna",pl,pol,pol,pol,pols,
venda,"Niger–Congo languages,Niger–Congo","Venda language,Venda","lang=ve,Tshivenḓa",ve,ven,ven,ven,,
swahili,"Niger–Congo languages,Niger–Congo","Swahili language,Swahili","lang=sw,Kiswahili",sw,swa,swa,"swa + ISO 639 macrolanguage#swa,2",,macrolanguage
north ndebele,"Niger–Congo languages,Niger–Congo","Northern Ndebele language,North Ndebele","lang=nd,isiNdebele",nd,nde,nde,nde,,
српски језик,"Indo-European languages,Indo-European","Serbian language,Serbian","lang=sr,српски језик",sr,srp,srp,srp,,"The ISO 639-2/T code srp deprecated the ISO 639-2/B code scc<ref name=LOC Changes>{{cite web,title=Code Changes,url=http://www.loc.gov/standards/iso639-2/php/code_changes.php,work=ISO 639-2,publisher=Library of Congress,accessdate=31 May 2012}}</ref>"
icelandic,"Indo-European languages,Indo-European","Icelandic language,Icelandic","lang=is,Íslenska",is,isl,ice,isl,,
avesta,"Indo-European languages,Indo-European","Avestan language,Avestan","lang=ae,avesta",ae,ave,ave,ave,,"ancient languages,ancient"
uighur,"Turkic languages,Turkic","Uyghur language,Uyghur, Uighur","{{lang,ug-Latn,Uyƣurqə}}, {{rtl-lang,ug-Arab,<!--rtl-->ئۇيغۇرچە<!--rtl-->}}",ug,uig,uig,uig,,
somali,"Afro-Asiatic languages,Afro-Asiatic","Somali language,Somali","lang=so,Soomaaliga, af Soomaali",so,som,som,som,,
sanskrit,"Indo-European languages,Indo-European","Sanskrit,Sanskrit Saṁskṛta","lang=sa,संस्कृतम्",sa,san,san,san,,"ancient, still spoken"
cornish,"Indo-European languages,Indo-European","Cornish language,Cornish","lang=kw, Kernewek",kw,cor,cor,cor,,
indonesian,"Austronesian languages,Austronesian","Indonesian language,Indonesian","lang=id,Bahasa Indonesia",id,ind,ind,ind,,Covered by macrolanguage ms/msa
zulu,"Niger–Congo languages,Niger–Congo","Zulu language,Zulu","lang=zu,isiZulu",zu,zul,zul,zul,,
bihari,"Indo-European languages,Indo-European","Bihari languages,Bihari","lang=bh,भोजपुरी",bh,bih,bih,–,,"Collective language code for Bhojpuri language,Bhojpuri, Magahi language,Magahi, and Maithili language,Maithili"
hrvatski jezik,"Indo-European languages,Indo-European","Croatian language,Croatian","lang=hr,hrvatski jezik",hr,hrv,hrv,hrv,,
ikinyarwanda,"Niger–Congo languages,Niger–Congo",Kinyarwanda,"lang=rw,Ikinyarwanda",rw,kin,kin,kin,,
catalan,"Indo-European languages,Indo-European","Catalan language,Catalan, Valencian","lang=ca,català, valencià",ca,cat,cat,cat,,
bihari s,"Indo-European languages,Indo-European","Bihari languages,Bihari","lang=bh,भोजपुरी",bh,bih,bih,–,,"Collective language code for Bhojpuri language,Bhojpuri, Magahi language,Magahi, and Maithili language,Maithili"
kirundi,"Niger–Congo languages,Niger–Congo",Kirundi,"lang=rn,Ikirundi",rn,run,run,run,,
italiano,"Indo-European languages,Indo-European","Italian language,Italian","lang=it,italiano",it,ita,ita,ita,itas,
finnish,"Uralic languages,Uralic","Finnish language,Finnish","lang=fi,suomi, suomen kieli",fi,fin,fin,fin,,
sundanese,"Austronesian languages,Austronesian","Sundanese language,Sundanese","lang=su,Basa Sunda",su,sun,sun,sun,,
serbian,"Indo-European languages,Indo-European","Serbian language,Serbian","lang=sr,српски језик",sr,srp,srp,srp,,"The ISO 639-2/T code srp deprecated the ISO 639-2/B code scc<ref name=LOC Changes>{{cite web,title=Code Changes,url=http://www.loc.gov/standards/iso639-2/php/code_changes.php,work=ISO 639-2,publisher=Library of Congress,accessdate=31 May 2012}}</ref>"
türkmen,"Turkic languages,Turkic","Turkmen language,Turkmen","lang=tk,Türkmen, Түркмен",tk,tuk,tuk,tuk,,
nuosu,"Sino-Tibetan languages,Sino-Tibetan","Nuosu language,Nuosu","lang=ii,ꆈꌠ꒿ Nuosuhxop",ii,iii,iii,iii,,Standard form of Yi languages
portuguese,"Indo-European languages,Indo-European","Portuguese language,Portuguese","lang=pt,português",pt,por,por,por,,
walloon,"Indo-European languages,Indo-European","Walloon language,Walloon","lang=wa,walon",wa,wln,wln,wln,,
czech,"Indo-European languages,Indo-European","Czech language,Czech","lang=cs,čeština, český jazyk",cs,ces,cze,ces,,
kongo,"Niger–Congo languages,Niger–Congo","Kongo language,Kongo","lang=kg,KiKongo",kg,kon,kon,"kon + ISO 639 macrolanguage#kon,3",,macrolanguage
af soomaali,"Afro-Asiatic languages,Afro-Asiatic","Somali language,Somali","lang=so,Soomaaliga, af Soomaali",so,som,som,som,,
amharic,"Afro-Asiatic languages,Afro-Asiatic","Amharic language,Amharic","lang=am,አማርኛ",am,amh,amh,amh,,
tajik,"Indo-European languages,Indo-European","Tajik language,Tajik","{{lang,tg-Cyrl,тоҷикӣ}}, {{lang,tg-Latn,toğikī}}, {{rtl-lang,tg-Arab,<!--rtl-->تاجیکی<!--rtl-->}}",tg,tgk,tgk,tgk,,
xhosa,"Niger–Congo languages,Niger–Congo","Xhosa language,Xhosa","lang=xh,isiXhosa",xh,xho,xho,xho,,
marshallese,"Austronesian languages,Austronesian","Marshallese language,Marshallese","lang=mh,Kajin M̧ajeļ",mh,mah,mah,mah,,
shona,"Niger–Congo languages,Niger–Congo","Shona language,Shona","lang=sn,chiShona",sn,sna,sna,sna,,
pashto,"Indo-European languages,Indo-European","Pashto language,Pashto, Pushto","lang=ps dir=rtl,<!--rtl-->پښتو<!--rtl-->",ps,pus,pus,"pus + ISO 639 macrolanguage#pus,3",,macrolanguage
čeština,"Indo-European languages,Indo-European","Czech language,Czech","lang=cs,čeština, český jazyk",cs,ces,cze,ces,,
bosanski jezik,"Indo-European languages,Indo-European","Bosnian language,Bosnian","lang=bs,bosanski jezik",bs,bos,bos,bos,boss,
kichwa,"Quechuan languages,Quechuan","Quechua language,Quechua","lang=qu,Runa Simi, Kichwa",qu,que,que,"que + ISO 639 macrolanguage#que,44",,macrolanguage
old slavonic,"Indo-European languages,Indo-European","Old Church Slavonic, Church Slavic, Church Slavonic, Old Bulgarian, Old Slavonic","lang=cu,ѩзыкъ словѣньскъ",cu,chu,chu,chu,,"ancient languages,ancient"
нохчийн мотт,"Northeast Caucasian languages,Northeast Caucasian","Chechen language,Chechen","lang=ce,нохчийн мотт",ce,che,che,che,,
नेपाली,"Indo-European languages,Indo-European","Nepali language,Nepali","lang=ne,नेपाली",ne,nep,nep,nep,,
chishona,"Niger–Congo languages,Niger–Congo","Shona language,Shona","lang=sn,chiShona",sn,sna,sna,sna,,
chinyanja,"Niger–Congo languages,Niger–Congo","Chichewa language,Chichewa, Chewa, Nyanja","lang=ny,chiCheŵa, chinyanja",ny,nya,nya,nya,,
afrikaans,"Indo-European languages,Indo-European","Afrikaans language,Afrikaans","lang=af,Afrikaans",af,afr,afr,afr,afrs,
ελληνικά,"Indo-European languages,Indo-European","Greek language,Greek, Modern","lang=el,ελληνικά",el,ell,gre,ell,ells,
old church slavonic,"Indo-European languages,Indo-European","Old Church Slavonic, Church Slavic, Church Slavonic, Old Bulgarian, Old Slavonic","lang=cu,ѩзыкъ словѣньскъ",cu,chu,chu,chu,,"ancient languages,ancient"
norwegian nynorsk,"Indo-European languages,Indo-European","Nynorsk,Norwegian Nynorsk","lang=nn,Norsk nynorsk",nn,nno,nno,nno,,Covered by macrolanguage no/nor
albanian,"Indo-European languages,Indo-European","Albanian language,Albanian","lang=sq,gjuha shqipe",sq,sqi,alb,"sqi + ISO 639 macrolanguage#sqi,4",–,"macrolanguage, Albanian Phylozone in 639-6"
tonga tonga islands,"Austronesian languages,Austronesian","Tongan language,Tonga Tonga Islands","lang=to,faka Tonga",to,ton,ton,ton,,
limburgan,"Indo-European languages,Indo-European","Limburgish language,Limburgish, Limburgan, Limburger","lang=li,Limburgs",li,lim,lim,lim,,
ido,"Constructed languages,Constructed","Ido language,Ido","lang=io,Ido",io,ido,ido,ido,idos,
latvian,"Indo-European languages,Indo-European","Latvian language,Latvian","lang=lv,latviešu valoda",lv,lav,lav,"lav + ISO 639 macrolanguage#lav,2",,macrolanguage
faka tonga,"Austronesian languages,Austronesian","Tongan language,Tonga Tonga Islands","lang=to,faka Tonga",to,ton,ton,ton,,
oromo,"Afro-Asiatic languages,Afro-Asiatic","Oromo language,Oromo","lang=om,Afaan Oromoo",om,orm,orm,"orm + ISO 639 macrolanguage#orm,4",,macrolanguage
pāli,"Indo-European languages,Indo-European","Pāli language,Pāli","lang=pi,पाऴि",pi,pli,pli,pli,,ancient
français,"Indo-European languages,Indo-European","French language,French","lang=fr,français, langue française",fr,fra,fre,fra,fras,
twi,"Niger–Congo languages,Niger–Congo",Twi,"lang=tw,Twi",tw,twi,twi,twi,,Covered by macrolanguage ak/aka
brezhoneg,"Indo-European languages,Indo-European","Breton language,Breton","lang=br,brezhoneg",br,bre,bre,bre,,
limburgs,"Indo-European languages,Indo-European","Limburgish language,Limburgish, Limburgan, Limburger","lang=li,Limburgs",li,lim,lim,lim,,
slovak,"Indo-European languages,Indo-European","Slovak language,Slovak","lang=sk, slovenčina, slovenský jazyk",sk,slk,slo,slk,,
македонски јазик,"Indo-European languages,Indo-European","Macedonian language,Macedonian","lang=mk,македонски јазик",mk,mkd,mac,mkd,,
wollof,"Niger–Congo languages,Niger–Congo","Wolof language,Wolof","lang=wo,Wollof",wo,wol,wol,wol,,
māori,"Austronesian languages,Austronesian","Māori language,Māori","lang=mi,te reo Māori",mi,mri,mao,mri,,
vosa vakaviti,"Austronesian languages,Austronesian","Fijian language,Fijian","lang=fj,vosa Vakaviti",fj,fij,fij,fij,,
otjiherero,"Niger–Congo languages,Niger–Congo","Herero language,Herero","lang=hz,Otjiherero",hz,her,her,her,,
limburgish,"Indo-European languages,Indo-European","Limburgish language,Limburgish, Limburgan, Limburger","lang=li,Limburgs",li,lim,lim,lim,,
corsu,"Indo-European languages,Indo-European","Corsican language,Corsican","lang=co,corsu, lingua corsa",co,cos,cos,cos,,
suomen kieli,"Uralic languages,Uralic","Finnish language,Finnish","lang=fi,suomi, suomen kieli",fi,fin,fin,fin,,
bengali,"Indo-European languages,Indo-European","Bengali language,Bengali, Bangla","lang=bn,বাংলা",bn,ben,ben,ben,,
northern ndebele,"Niger–Congo languages,Niger–Congo","Northern Ndebele language,North Ndebele","lang=nd,isiNdebele",nd,nde,nde,nde,,
russian,"Indo-European languages,Indo-European","Russian language,Russian","lang=ru,русский язык",ru,rus,rus,rus,,
haitian,"Creole languages,Creole","Haitian Creole language,Haitian, Haitian Creole","lang=ht,Kreyòl ayisyen",ht,hat,hat,hat,,
język polski,"Indo-European languages,Indo-European","Polish language,Polish","lang=pl,język polski, polszczyzna",pl,pol,pol,pol,pols,
norwegian bokmål,"Indo-European languages,Indo-European","Bokmål,Norwegian Bokmål","lang=nb,Norsk bokmål",nb,nob,nob,nob,,Covered by macrolanguage no/nor
বাংলা,"Indo-European languages,Indo-European","Bengali language,Bengali, Bangla","lang=bn,বাংলা",bn,ben,ben,ben,,
hausa,"Afro-Asiatic languages,Afro-Asiatic","Hausa language,Hausa","lang=ha dir=rtl,Hausa, <!--rtl-->هَوُسَ<!--rtl-->",ha,hau,hau,hau,,
irish,"Indo-European languages,Indo-European","Irish language,Irish","lang=ga,Gaeilge",ga,gle,gle,gle,,
isindebele,"Niger–Congo languages,Niger–Congo","Northern Ndebele language,North Ndebele","lang=nd,isiNdebele",nd,nde,nde,nde,,
Íslenska,"Indo-European languages,Indo-European","Icelandic language,Icelandic","lang=is,Íslenska",is,isl,ice,isl,,
kannada,"Dravidian languages,Dravidian","Kannada language,Kannada","lang=kn,ಕನ್ನಡ",kn,kan,kan,kan,,
ирон æвзаг,"Indo-European languages,Indo-European","Ossetic language,Ossetian, Ossetic","lang=os,ирон æвзаг",os,oss,oss,oss,,
afaan oromoo,"Afro-Asiatic languages,Afro-Asiatic","Oromo language,Oromo","lang=om,Afaan Oromoo",om,orm,orm,"orm + ISO 639 macrolanguage#orm,4",,macrolanguage
sinhala,"Indo-European languages,Indo-European","Sinhala language,Sinhala, Sinhalese","lang=si,සිංහල",si,sin,sin,sin,,
gàidhlig,"Indo-European languages,Indo-European","Scottish Gaelic language,Scottish Gaelic, Gaelic","lang=gd,Gàidhlig",gd,gla,gla,gla,,
swati,"Niger–Congo languages,Niger–Congo","Swati language,Swati","lang=ss,SiSwati",ss,ssw,ssw,ssw,,
isizulu,"Niger–Congo languages,Niger–Congo","Zulu language,Zulu","lang=zu,isiZulu",zu,zul,zul,zul,,
standard tibetan,"Sino-Tibetan languages,Sino-Tibetan","Standard Tibetan,Tibetan Standard, Tibetan, Central","lang=bo,བོད་ཡིག",bo,bod,tib,bod,,
euskera,Language isolate,"Basque language,Basque","lang=eu,euskara, euskera",eu,eus,baq,eus,,
മലയാളം,"Dravidian languages,Dravidian","Malayalam language,Malayalam","lang=ml,മലയാളം",ml,mal,mal,mal,,
nederlands,"Indo-European languages,Indo-European","Dutch language,Dutch","lang=nl,Nederlands, Vlaams",nl,nld,dut,nld,,
chicheŵa,"Niger–Congo languages,Niger–Congo","Chichewa language,Chichewa, Chewa, Nyanja","lang=ny,chiCheŵa, chinyanja",ny,nya,nya,nya,,
nepali,"Indo-European languages,Indo-European","Nepali language,Nepali","lang=ne,नेपाली",ne,nep,nep,nep,,
volapük,"Constructed languages,Constructed",Volapük,"lang=vo,Volapük",vo,vol,vol,vol,,constructed
lëtzebuergesch,"Indo-European languages,Indo-European","Luxembourgish language,Luxembourgish, Letzeburgesch","lang=lb,Lëtzebuergesch",lb,ltz,ltz,ltz,,
ខេមរភាសា,"Austroasiatic languages,Austroasiatic","Khmer language,Khmer","lang=km,ខ្មែរ, ខេមរភាសា, ភាសាខ្មែរ",km,khm,khm,khm,,a.k.a. Cambodian
türkçe,"Turkic languages,Turkic","Turkish language,Turkish","lang=tr,Türkçe",tr,tur,tur,tur,,
